Radiomic Analysis with R (RadAR)
…
The option conditions requires a vector of labels indicating the status of each patient. Top ranked features can be retrieved by the select_top_features() function.

## select top ranked features
top_features <- select_top_features(rdr = rdr, 
                                    which_statistics = "wilcox")

## print the first top ranked features
top_features

## # A tibble: 337 x 8
##    feature_name image_type feature_type feature_descrip~ statistics
##    <chr>        <chr>      <chr>        <chr>                 <dbl>
##  1 Maximum      wavelet.H~ first_order~ Maximum gray le~  0.0000321
##  2 Minimum      wavelet.H~ first_order~ Minimum gray le~  0.0000321
##  3 Range        wavelet.H~ first_order~ Range of gray v~  0.0000321
##  4 Correlation  wavelet.H~ grey_level_~ Is a value betw~  0.0000321
##  5 LongRunHigh~ wavelet.H~ grey_level_~ Measures the jo~  0.0000321
##  6 LowGrayLeve~ wavelet.H~ grey_level_~ "Measures the d~  0.0000321
##  7 SmallAreaLo~ wavelet.H~ grey_level_~ Measures the pr~  0.0000321
##  8 LargeDepend~ wavelet.H~ grey_level_~ Measures the jo~  0.0000321
##  9 LowGrayLeve~ wavelet.H~ grey_level_~ "Measures the d~  0.0000321
## 10 Complexity   wavelet.H~ neighbourin~ An image is con~  0.0000321
## # ... with 327 more rows, and 3 more variables:
## #   statistics_description <chr>, median_in_1 <dbl>, median_in_0 <dbl>
…
